solid Gmsh Physical Surface 7
facet normal 1 0 0
  outer loop
    vertex 2.5 2.5 0.2
    vertex 2.5 -2.5 0.2
    vertex 2.5 -2.5 0
  endloop
endfacet
facet normal 1 0 0
  outer loop
    vertex 2.5 2.5 0.2
    vertex 2.5 -2.5 0
    vertex 2.5 2.5 0
  endloop
endfacet
endsolid Gmsh Physical Surface 7
