solid Gmsh Physical Surface 13
facet normal 0 0 1
  outer loop
    vertex -2.5 -2.5 2.5
    vertex 0 0 2.5
    vertex -2.5 2.5 2.5
  endloop
endfacet
facet normal 0 0 1
  outer loop
    vertex 2.5 -2.5 2.5
    vertex 0 0 2.5
    vertex -2.5 -2.5 2.5
  endloop
endfacet
facet normal -0 0 1
  outer loop
    vertex -2.5 2.5 2.5
    vertex 0 0 2.5
    vertex 2.5 2.5 2.5
  endloop
endfacet
facet normal 0 0 1
  outer loop
    vertex 2.5 2.5 2.5
    vertex 0 0 2.5
    vertex 2.5 -2.5 2.5
  endloop
endfacet
endsolid Gmsh Physical Surface 13
