solid Gmsh Physical Surface 10
facet normal 0 0 -1
  outer loop
    vertex -2.5 -2.5 0
    vertex -2.5 2.5 0
    vertex 0 0 0
  endloop
endfacet
facet normal 0 0 -1
  outer loop
    vertex 2.5 -2.5 0
    vertex -2.5 -2.5 0
    vertex 0 0 0
  endloop
endfacet
facet normal 0 0 -1
  outer loop
    vertex -2.5 2.5 0
    vertex 2.5 2.5 0
    vertex 0 0 0
  endloop
endfacet
facet normal 0 -0 -1
  outer loop
    vertex 2.5 2.5 0
    vertex 2.5 -2.5 0
    vertex 0 0 0
  endloop
endfacet
endsolid Gmsh Physical Surface 10
