solid Gmsh Physical Surface 27
facet normal 0 -1 0
  outer loop
    vertex 0 0.01 1.01
    vertex 0 0.01 1
    vertex 0.005 0.01 1.005
  endloop
endfacet
facet normal 0 -1 0
  outer loop
    vertex 0.01 0.01 1
    vertex 0.01 0.01 1.01
    vertex 0.005 0.01 1.005
  endloop
endfacet
facet normal -0 -1 0
  outer loop
    vertex 0.01 0.01 1.01
    vertex 0 0.01 1.01
    vertex 0.005 0.01 1.005
  endloop
endfacet
facet normal 0 -1 0
  outer loop
    vertex 0 0.01 1
    vertex 0.01 0.01 1
    vertex 0.005 0.01 1.005
  endloop
endfacet
endsolid Gmsh Physical Surface 27
