solid Gmsh Physical Surface 19
facet normal 0 -1 0
  outer loop
    vertex -2.2 -2.2 2.2
    vertex -2.2 -2.2 0.2
    vertex 4.440892098500626e-16 -2.2 1.2
  endloop
endfacet
facet normal 0 -1 0
  outer loop
    vertex 2.200000000000001 -2.2 0.2
    vertex 2.200000000000001 -2.2 2.2
    vertex 4.440892098500626e-16 -2.2 1.2
  endloop
endfacet
facet normal 0 -1 0
  outer loop
    vertex -2.2 -2.2 0.2
    vertex 2.200000000000001 -2.2 0.2
    vertex 4.440892098500626e-16 -2.2 1.2
  endloop
endfacet
facet normal -0 -1 0
  outer loop
    vertex 2.200000000000001 -2.2 2.2
    vertex -2.2 -2.2 2.2
    vertex 4.440892098500626e-16 -2.2 1.2
  endloop
endfacet
endsolid Gmsh Physical Surface 19
