\relax 
\providecommand\hyper@newdestlabel[2]{}
\providecommand\zref@newlabel[2]{}
\providecommand\HyperFirstAtBeginDocument{\AtBeginDocument}
\HyperFirstAtBeginDocument{\ifx\hyper@anchor\@undefined
\global\let\oldcontentsline\contentsline
\gdef\contentsline#1#2#3#4{\oldcontentsline{#1}{#2}{#3}}
\global\let\oldnewlabel\newlabel
\gdef\newlabel#1#2{\newlabelxx{#1}#2}
\gdef\newlabelxx#1#2#3#4#5#6{\oldnewlabel{#1}{{#2}{#3}}}
\AtEndDocument{\ifx\hyper@anchor\@undefined
\let\contentsline\oldcontentsline
\let\newlabel\oldnewlabel
\fi}
\fi}
\global\let\hyper@last\relax 
\gdef\HyperFirstAtBeginDocument#1{#1}
\providecommand\HyField@AuxAddToFields[1]{}
\providecommand\HyField@AuxAddToCoFields[2]{}
\providecommand\AtEndDvi@Check{}
\AtEndDvi@Check
\citation{Ozisik:1993}
\@writefile{toc}{\contentsline {section}{\numberline {1}Introduction}{3}{section.1}}
\@writefile{toc}{\contentsline {section}{\numberline {2}G\IeC {\'e}om\IeC {\'e}trie slab}{3}{section.2}}
\@writefile{toc}{\contentsline {subsection}{\numberline {2.1}Probl\IeC {\`e}me}{3}{subsection.2.1}}
\@writefile{toc}{\contentsline {subsection}{\numberline {2.2}Profil de temp\IeC {\'e}rature initial}{3}{subsection.2.2}}
\newlabel{para:Tinit_slab}{{2.2}{3}{Profil de température initial}{subsection.2.2}{}}
\@writefile{toc}{\contentsline {subsection}{\numberline {2.3}Superposition}{4}{subsection.2.3}}
\@writefile{toc}{\contentsline {subsubsection}{\numberline {2.3.1}Sous-probl\IeC {\`e}me 1: stationnaire}{4}{subsubsection.2.3.1}}
\newlabel{para:sp1}{{2.3.1}{4}{Sous-problème 1: stationnaire}{subsubsection.2.3.1}{}}
\@writefile{toc}{\contentsline {subsubsection}{\numberline {2.3.2}Sous-probl\IeC {\`e}me 2: instationnaire homog\IeC {\`e}ne}{5}{subsubsection.2.3.2}}
\newlabel{para:sp2}{{2.3.2}{5}{Sous-problème 2: instationnaire homogène}{subsubsection.2.3.2}{}}
\newlabel{eq:diffusion1D}{{12}{5}{Sous-problème 2: instationnaire homogène}{equation.2.12}{}}
\newlabel{eq:CL1}{{13}{5}{Sous-problème 2: instationnaire homogène}{equation.2.13}{}}
\newlabel{eq:CL2}{{14}{5}{Sous-problème 2: instationnaire homogène}{equation.2.14}{}}
\@writefile{toc}{\contentsline {subsection}{\numberline {2.4}R\IeC {\'e}solution du probl\IeC {\`e}me instationnaire homog\IeC {\`e}ne}{5}{subsection.2.4}}
\@writefile{toc}{\contentsline {subsubsection}{\numberline {2.4.1}S\IeC {\'e}paration des variables}{5}{subsubsection.2.4.1}}
\newlabel{eq:T2_gen_exp}{{15}{5}{Séparation des variables}{equation.2.15}{}}
\newlabel{eq:cm}{{20}{6}{Séparation des variables}{equation.2.20}{}}
\@writefile{toc}{\contentsline {subsubsection}{\numberline {2.4.2}Les conditions aux limites}{6}{subsubsection.2.4.2}}
\newlabel{eq:tan_relation}{{23}{6}{Les conditions aux limites}{equation.2.23}{}}
\@writefile{toc}{\contentsline {subsubsection}{\numberline {2.4.3}Int\IeC {\'e}grale de normalisation}{6}{subsubsection.2.4.3}}
\newlabel{eq:N2}{{30}{7}{Intégrale de normalisation}{equation.2.30}{}}
\newlabel{eq:sin2_relation}{{31}{7}{Intégrale de normalisation}{equation.2.31}{}}
\newlabel{eq:N3}{{32}{8}{Intégrale de normalisation}{equation.2.32}{}}
\newlabel{eq:Nbeta}{{33}{8}{Intégrale de normalisation}{equation.2.33}{}}
\@writefile{toc}{\contentsline {subsubsection}{\numberline {2.4.4}Coefficients de la s\IeC {\'e}rie de Fourier}{8}{subsubsection.2.4.4}}
\newlabel{eq:ic_integration}{{34}{8}{Coefficients de la série de Fourier}{equation.2.34}{}}
\@writefile{toc}{\contentsline {subsection}{\numberline {2.5}R\IeC {\'e}sultats}{9}{subsection.2.5}}
\newlabel{eq:resultsslab}{{2.5}{9}{Résultats}{subsection.2.5}{}}
\@writefile{lof}{\contentsline {figure}{\numberline {1}{\ignorespaces }}{10}{figure.1}}
\newlabel{fig:Tsolid_analytical}{{1}{10}{}{figure.1}{}}
\@writefile{lof}{\contentsline {figure}{\numberline {2}{\ignorespaces }}{10}{figure.2}}
\newlabel{fig:Tsolid}{{2}{10}{}{figure.2}{}}
\@writefile{lof}{\contentsline {figure}{\numberline {3}{\ignorespaces }}{11}{figure.3}}
\newlabel{fig:Te_signal_analytical}{{3}{11}{}{figure.3}{}}
\@writefile{lof}{\contentsline {figure}{\numberline {4}{\ignorespaces }}{11}{figure.4}}
\newlabel{fig:Te_signal}{{4}{11}{}{figure.4}{}}
\@writefile{toc}{\contentsline {subsection}{\numberline {2.6}Conditions de type Dirichlet}{12}{subsection.2.6}}
\@writefile{lof}{\contentsline {figure}{\numberline {5}{\ignorespaces }}{14}{figure.5}}
\newlabel{fig:Tsolid_analytical_Dirichlet}{{5}{14}{}{figure.5}{}}
\@writefile{lof}{\contentsline {figure}{\numberline {6}{\ignorespaces }}{14}{figure.6}}
\newlabel{fig:Tsolid_Dirichlet}{{6}{14}{}{figure.6}{}}
\@writefile{toc}{\contentsline {section}{\numberline {3}G\IeC {\'e}om\IeC {\'e}trie sph\IeC {\'e}rique}{15}{section.3}}
\@writefile{toc}{\contentsline {subsection}{\numberline {3.1}Equation de la chaleur en coordonn\IeC {\'e}es sph\IeC {\'e}rique}{15}{subsection.3.1}}
\@writefile{toc}{\contentsline {subsection}{\numberline {3.2}Probl\IeC {\`e}me}{16}{subsection.3.2}}
\@writefile{toc}{\contentsline {subsection}{\numberline {3.3}R\IeC {\'e}solution}{16}{subsection.3.3}}
\@writefile{toc}{\contentsline {subsubsection}{\numberline {3.3.1}Sous-probl\IeC {\`e}me stationnaire}{16}{subsubsection.3.3.1}}
\@writefile{toc}{\contentsline {subsubsection}{\numberline {3.3.2}Sous-probl\IeC {\`e}me instationnaire homog\IeC {\`e}ne}{16}{subsubsection.3.3.2}}
\newlabel{eq:tr2}{{63}{17}{Sous-problème instationnaire homogène}{equation.3.63}{}}
\newlabel{eq:cmspherical}{{67}{18}{Sous-problème instationnaire homogène}{equation.3.67}{}}
\@writefile{toc}{\contentsline {subsubsection}{\numberline {3.3.3}R\IeC {\'e}sultats}{18}{subsubsection.3.3.3}}
\newlabel{eq:solspherical}{{68}{18}{Résultats}{equation.3.68}{}}
\@writefile{lof}{\contentsline {figure}{\numberline {7}{\ignorespaces }}{20}{figure.7}}
\newlabel{fig:Tsolid_analytical_spherical}{{7}{20}{}{figure.7}{}}
\@writefile{lof}{\contentsline {figure}{\numberline {8}{\ignorespaces }}{20}{figure.8}}
\newlabel{fig:Tsolid_spherical}{{8}{20}{}{figure.8}{}}
\bibstyle{unsrt}
\bibdata{biblio}
\bibcite{Ozisik:1993}{1}
\zref@newlabel{LastPage}{\default{3.3.3}\page{21}\abspage{21}}
