Temperatures @ stationary

Temperature on the left boundary:
   6.9264423632204861E-310
Temperature on the right boundary:
   2.1793149314907744E-314

   0.0000000000000000        330.00000000000000     
