   4.0000000000000001E-002   0.0000000000000000        0.0000000000000000        0.0000000000000000        300.00000000000000     
   4.0000000000000001E-002   0.0000000000000000        0.0000000000000000        1000.0000000000000        310.79253725644389     
   4.0000000000000001E-002   0.0000000000000000        0.0000000000000000        2000.0000000000000        321.46197230068231     
   4.0000000000000001E-002   0.0000000000000000        0.0000000000000000        3000.0000000000000        326.28689608973121     
   4.0000000000000001E-002   0.0000000000000000        0.0000000000000000        4000.0000000000000        328.38802320824567     
   4.0000000000000001E-002   0.0000000000000000        0.0000000000000000        100000.00000000000        330.00000000000000     
