   8.0000000000000002E-002   0.0000000000000000        0.0000000000000000        0.0000000000000000        300.00000000000000     
   8.0000000000000002E-002   0.0000000000000000        0.0000000000000000        1000.0000000000000        323.50191447445036     
   8.0000000000000002E-002   0.0000000000000000        0.0000000000000000        2000.0000000000000        327.34183064093838     
   8.0000000000000002E-002   0.0000000000000000        0.0000000000000000        3000.0000000000000        328.85188595105035     
   8.0000000000000002E-002   0.0000000000000000        0.0000000000000000        4000.0000000000000        329.50184686223940     
   8.0000000000000002E-002   0.0000000000000000        0.0000000000000000        100000.00000000000        330.00000000000000     
