   7.0000000000000007E-002   0.0000000000000000        0.0000000000000000        0.0000000000000000        300.00000000000000     
   7.0000000000000007E-002   0.0000000000000000        0.0000000000000000        1000.0000000000000        319.95680061002992     
   7.0000000000000007E-002   0.0000000000000000        0.0000000000000000        2000.0000000000000        325.82483508428214     
   7.0000000000000007E-002   0.0000000000000000        0.0000000000000000        3000.0000000000000        328.19422597575442     
   7.0000000000000007E-002   0.0000000000000000        0.0000000000000000        4000.0000000000000        329.21640892926484     
   7.0000000000000007E-002   0.0000000000000000        0.0000000000000000        100000.00000000000        330.00000000000000     
