   5.9999999999999998E-002   0.0000000000000000        0.0000000000000000        0.0000000000000000        300.00000000000000     
   5.9999999999999998E-002   0.0000000000000000        0.0000000000000000        1000.0000000000000        316.53086872955356     
   5.9999999999999998E-002   0.0000000000000000        0.0000000000000000        2000.0000000000000        324.28440375085108     
   5.9999999999999998E-002   0.0000000000000000        0.0000000000000000        3000.0000000000000        327.52376040359115     
   5.9999999999999998E-002   0.0000000000000000        0.0000000000000000        4000.0000000000000        328.92531909313914     
   5.9999999999999998E-002   0.0000000000000000        0.0000000000000000        100000.00000000000        330.00000000000000     
