solid STL generated by script
  facet normal 0.000000 0.000000 -1.000000
    outer loop
      vertex 1.000000 1.000000 0.000000
      vertex 1.000000 0.000000 0.000000
      vertex 0.000000 0.000000 0.000000
    endloop
  endfacet
  facet normal 0.000000 0.000000 -1.000000
    outer loop
      vertex 1.000000 1.000000 0.000000
      vertex 0.000000 0.000000 0.000000
      vertex 0.000000 1.000000 0.000000
    endloop
  endfacet
  facet normal -1.000000 0.000000 0.000000
    outer loop
      vertex 0.000000 1.000000 0.000000
      vertex 0.000000 0.000000 0.000000
      vertex 0.000000 0.000000 1.000000
    endloop
  endfacet
  facet normal -1.000000 0.000000 0.000000
    outer loop
      vertex 0.000000 1.000000 0.000000
      vertex 0.000000 0.000000 1.000000
      vertex 0.000000 1.000000 1.000000
    endloop
  endfacet
  facet normal 0.000000 0.000000 1.000000
    outer loop
      vertex 0.000000 1.000000 1.000000
      vertex 0.000000 0.000000 1.000000
      vertex 1.000000 1.000000 1.000000
    endloop
  endfacet
  facet normal 0.000000 0.000000 1.000000
    outer loop
      vertex 1.000000 1.000000 1.000000
      vertex 0.000000 0.000000 1.000000
      vertex 1.000000 0.000000 1.000000
    endloop
  endfacet
  facet normal 1.000000 0.000000 0.000000
    outer loop
      vertex 1.000000 0.000000 1.000000
      vertex 1.000000 0.000000 0.000000
      vertex 1.000000 1.000000 0.000000
    endloop
  endfacet
  facet normal 1.000000 0.000000 0.000000
    outer loop
      vertex 1.000000 0.000000 1.000000
      vertex 1.000000 1.000000 0.000000
      vertex 1.000000 1.000000 1.000000
    endloop
  endfacet
  facet normal 0.000000 1.000000 0.000000
    outer loop
      vertex 1.000000 1.000000 1.000000
      vertex 0.000000 1.000000 0.000000
      vertex 0.000000 1.000000 1.000000
    endloop
  endfacet
  facet normal 0.000000 1.000000 0.000000
    outer loop
      vertex 1.000000 1.000000 1.000000
      vertex 1.000000 1.000000 0.000000
      vertex 0.000000 1.000000 0.000000
    endloop
  endfacet
  facet normal 0.000000 -1.000000 0.000000
    outer loop
      vertex 1.000000 0.000000 1.000000
      vertex 0.000000 0.000000 0.000000
      vertex 1.000000 0.000000 0.000000
    endloop
  endfacet
  facet normal 0.000000 -1.000000 0.000000
    outer loop
      vertex 1.000000 0.000000 1.000000
      vertex 0.000000 0.000000 1.000000
      vertex 0.000000 0.000000 0.000000
    endloop
  endfacet
  facet normal 0.000000 0.000000 1.000000
    outer loop
      vertex 0.750000 0.750000 0.250000
      vertex 0.250000 0.250000 0.250000
      vertex 0.750000 0.250000 0.250000
    endloop
  endfacet
  facet normal 0.000000 0.000000 1.000000
    outer loop
      vertex 0.750000 0.750000 0.250000
      vertex 0.250000 0.750000 0.250000
      vertex 0.250000 0.250000 0.250000
    endloop
  endfacet
  facet normal 1.000000 0.000000 0.000000
    outer loop
      vertex 0.250000 0.750000 0.250000
      vertex 0.250000 0.250000 0.750000
      vertex 0.250000 0.250000 0.250000
    endloop
  endfacet
  facet normal 1.000000 0.000000 0.000000
    outer loop
      vertex 0.250000 0.750000 0.250000
      vertex 0.250000 0.750000 0.750000
      vertex 0.250000 0.250000 0.750000
    endloop
  endfacet
  facet normal 0.000000 0.000000 -1.000000
    outer loop
      vertex 0.250000 0.750000 0.750000
      vertex 0.750000 0.750000 0.750000
      vertex 0.250000 0.250000 0.750000
    endloop
  endfacet
  facet normal 0.000000 0.000000 -1.000000
    outer loop
      vertex 0.750000 0.750000 0.750000
      vertex 0.750000 0.250000 0.750000
      vertex 0.250000 0.250000 0.750000
    endloop
  endfacet
  facet normal -1.000000 0.000000 0.000000
    outer loop
      vertex 0.750000 0.250000 0.750000
      vertex 0.750000 0.750000 0.250000
      vertex 0.750000 0.250000 0.250000
    endloop
  endfacet
  facet normal -1.000000 0.000000 0.000000
    outer loop
      vertex 0.750000 0.250000 0.750000
      vertex 0.750000 0.750000 0.750000
      vertex 0.750000 0.750000 0.250000
    endloop
  endfacet
  facet normal 0.000000 -1.000000 0.000000
    outer loop
      vertex 0.750000 0.750000 0.750000
      vertex 0.250000 0.750000 0.750000
      vertex 0.250000 0.750000 0.250000
    endloop
  endfacet
  facet normal 0.000000 -1.000000 0.000000
    outer loop
      vertex 0.750000 0.750000 0.750000
      vertex 0.250000 0.750000 0.250000
      vertex 0.750000 0.750000 0.250000
    endloop
  endfacet
  facet normal 0.000000 1.000000 0.000000
    outer loop
      vertex 0.750000 0.250000 0.750000
      vertex 0.750000 0.250000 0.250000
      vertex 0.250000 0.250000 0.250000
    endloop
  endfacet
  facet normal 0.000000 1.000000 0.000000
    outer loop
      vertex 0.750000 0.250000 0.750000
      vertex 0.250000 0.250000 0.250000
      vertex 0.250000 0.250000 0.750000
    endloop
  endfacet
endsolid
