   7.0000000000000007E-002   1000.0000000000000        313.69811238184366     
   7.0000000000000007E-002   2000.0000000000000        327.16936573104033     
   7.0000000000000007E-002   3000.0000000000000        333.09891824062692     
   7.0000000000000007E-002   100000.00000000000        337.65217391304350     
