   5.9999999999999998E-002   1000.0000000000000        319.89767905379091     
   5.9999999999999998E-002   2000.0000000000000        335.84638077332306     
   5.9999999999999998E-002   3000.0000000000000        342.82108896429668     
   5.9999999999999998E-002   100000.00000000000        348.17391304347831     
